<svg xmlns="http://www.w3.org/2000/svg" width="490" height="370.617" viewBox="0 0 490 370.617">
  <g id="Graph04" transform="translate(-870.222 -6021.883)">
    <g id="Сгруппировать_6263" data-name="Сгруппировать 6263" transform="translate(204.703 5860.645)">
      
      <g class="eq4-man1">
        <path id="Контур_16325" data-name="Контур 16325" d="M668.871,423.528s1.381-11.637,3.353-21.7,11.051-23.865,13.412-28.8,3.747-11.44,6.706-20.513,11.243-12.82,17.949-15.384,24.852-8.481,24.852-8.481l3.944-7.691,5.523-9.273-2.366-11.243-4.734-.592a40,40,0,0,1-7.1-1.576c-1.576-.789-2.563-7.494-2.563-8.875s.985-9.468,2.563-18.737,4.538-12.821,11.243-19.131,15.976-5.325,24.457-4.142,16.759,14.787,19.132,18.343,6.113,9.467,6.113,9.467a30.151,30.151,0,0,1,.592,5.523c0,2.762-3.157,4.142-3.157,4.142l-.394,3.156v6.508c0,3.157-.4,2.368-.2,5.128s-.592,3.747-1.578,6.115-.789,1.973-.985,6.312-3.55,11.834-3.55,11.834a18.317,18.317,0,0,0,2.762,4.143c1.778,1.973,5.716,5.523,8.283,8.875a18.835,18.835,0,0,0,6.9,5.127l-8.875,8.678,3.747,2.366,4.143,4.142c11.636.986,9.665,71.794,9.665,71.794l.591,12.425-1.973,32.149s-2.171,19.132-4.733,26.824,2.761,5.918,2.761,5.918l.394,5.917-.306,5.306H681.511c.238-1.318.5-2.807.766-4.508,1.38-8.875,6.115-15.187,5.326-19.723s-1.578-2.958-1.578-2.958l-2.959-11.243s-5.523-7.691-9.273-13.21-5.326-26.627-5.326-26.627a53.533,53.533,0,0,1-2.564-8.283C665.124,427.079,668.871,423.528,668.871,423.528Z" transform="translate(0 -48.36)" fill="#d5eaf4" stroke="#007079" stroke-miterlimit="10" stroke-width="0.5"/>
      </g>

      <g class="eq4-man2">
        <path id="Контур_16326" data-name="Контур 16326" d="M818.37,432.22,869.225,430s39.993-.741,40.734-1.235c4.373-2.915,9.426-4.987,14.07-7.413,2.035-1.063,2.97-3.478,4.569-5.051a14.88,14.88,0,0,0,3.042-3.857c.773-1.568.688-3.385,1.317-4.957.113-.283.212-.573.3-.867-.465-1.08-.889-2.223-1.345-3.336-.744-1.819-1.779-3.887-2.875-6.163-.231-.224-.457-.451-.671-.686a22.163,22.163,0,0,1-4.281-8.3c-1.085-3.317-.927-6.71-.863-10.162a66.953,66.953,0,0,1,.562-9.7c.493-2.963-1.482-10.122-1.482-10.122a25.244,25.244,0,0,1,4.145-4.4l-1.942-8.742s43.449-3.456,51.349-.823,8.394,14.648,8.394,15.8a39.57,39.57,0,0,1,0,4.444,4.984,4.984,0,0,1-.531,1.543c.035.835.084,1.668.161,2.495a7.686,7.686,0,0,1-.31,3.051,2.452,2.452,0,0,1-.311.613c1.047.889,0,1.284-.161,3.325a13.971,13.971,0,0,1-.823,3.95c-.494,1.81-1.152,2.3-1.975,3.95s-.823,1.481-2.633,3.127c-1.612,1.466-3.481-.2-3.988,0l-.173.425c-.254,1.5-1.128,7.519-1.434,8.131-.3.592.207,6.107.311,7.212l.142.205c.659.057,3.976.352,5.307.648,1.481.329,1.152,1.317,2.3,2.962s0,0,1.81,2.139.5,2.631,1.476,3.778q.282.211.574.406c.97.345,2.333-.476,4.369-.069,2.469.493,5.925,1.152,10.7,1.975a72.223,72.223,0,0,1,8.624,2.4c.185.026.37.057.556.1,1.456.311,2.762.2,4.115,1.085.552.36,1.261.646,1.821,1.064l.355.13-.226-.026a2.453,2.453,0,0,1,.423.432c.546.74.229,1.945.893,2.611a26.63,26.63,0,0,1,3.208,3.949,119.108,119.108,0,0,1,7.159,12.1c2.963,5.925,4.444,12.1,5.678,17.281s5.679,37.278,5.432,39.5.493,14.813-.494,18.269-3.456,9.875-7.159,11.6-11.6,3.456-11.6,3.456l-3.456,12.1s-2.469,5.185-4.444,7.16-1.481,19.5-1.975,20.49l-105.908.494s0-13.825-.741-15.306-1.975-3.7-3.456-6.419-5.678-6.419-7.653-7.9-1.974-2.716-3.95-4.937-5.431-6.172-5.431-6.172l-2.715-3.95s-1.728-1.235-3.21-2.222-2.715-.741-4.691-1.975a23.526,23.526,0,0,0-4.443-2.222c-.741-.247-10.863-4.691-10.863-4.691s-10.615-3.7-16.047-5.431a8.312,8.312,0,0,1-5.925-6.666s-16.787-56.286-18.022-61.965S818.37,432.22,818.37,432.22Z" transform="translate(-81.442 -98.983)" fill="#c3dced" stroke="#007079" stroke-miterlimit="10" stroke-width="0.5"/>
        <path id="Контур_16328" data-name="Контур 16328" d="M976.089,626.157l-42.956-17.528-19.5-68.878s.247-4.443-8.64-4.443-84.184,3.95-84.184,3.95-4.938-1.235-3.7,5.678,18.762,66.655,18.762,66.655,18.762,8.641,18.762,7.9,39.993,10.122,39.993,10.122l46.659-1.728Z" transform="translate(-82.644 -204.437)" fill="#d5eaf4" stroke="#007079" stroke-miterlimit="10" stroke-width="0.5"/>
        <path id="Контур_16330" data-name="Контур 16330" d="M1022.884,301.02a10.823,10.823,0,0,1-3.586,4.965c-2.483,1.655-5.517,3.586-3.862,4.965s9.379,4.138,22.9,5.242,27.862,1.655,30.9.827,12.965-2.483,18.483-3.862,10.482-4.689,12.689-6.069,4.138-3.035,3.586-4.69-2.758-6.344-3.586-8.551-1.655-2.483-1.655-5.517-1.1-9.931-2.207-11.586-4.138-6.345-6.344-8.551a41.418,41.418,0,0,0-6.345-5.242,53.738,53.738,0,0,0-8.827-4.138c-2.759-.828-5.241-2.483-6.9-2.483s-6.621.552-6.621.552-8,1.931-9.931,3.31a78.647,78.647,0,0,1-8.276,4.414,49.7,49.7,0,0,0-6.9,4.689c-1.38,1.1-7.172,11.586-6.9,15.172s-2.207,12.138-3.586,13.517Z" transform="translate(-190.966 -51.859)" fill="#c3dced" stroke="#007079" stroke-miterlimit="10" stroke-width="0.5"/>
        <path id="Контур_16331" data-name="Контур 16331" d="M1196.73,692.62s-7.522,2.075-14.006,0-18.675-5.188-23.085-9.338-9.6-8.819-12.449-8.041-2.854.259-5.966,4.928-6.139,8.56-7.7,10.807-4.755,4.842-5.62,4.409a2.588,2.588,0,0,1-.692-3.631c1.038-1.383,5.966-8.386,6.657-9.6s3.718-6.658,3.2-6.83-2.075,1.3-3.977,3.717-7.954,9.424-9.338,10.98-3.372,3.977-4.583,3.372-1.989-2.68-1.383-3.372,6.571-7.609,7.435-8.56a12.858,12.858,0,0,0,1.989-2.766c.432-.864,1.47-2.334,1.643-2.94a20.822,20.822,0,0,1,.951-2.162s-1.124-.432-3.458,1.9a87.81,87.81,0,0,0-6.658,7.868c-1.3,1.729-2.68,3.2-3.631,2.854s-2.594-2.335-1.816-3.545,6.311-9.165,7-9.943a35.075,35.075,0,0,0,2.507-3.891,14.8,14.8,0,0,0,.778-2.594c0-.346-.951-.692-.951-.692s-3.285,1.47-4.755,3.631a23.088,23.088,0,0,1-4.323,5.015c-.865.519-3.977.432-4.237-.26s-.778-2.68-.346-3.2,7.522-8.127,8.819-9.251a14.806,14.806,0,0,1,6.312-3.631c2.94-.692,18.589-1.124,20.4-1.038a51.808,51.808,0,0,1,6.139.778c1.9.346,9.078,2.593,13.4,3.2s10.808.951,12.8.346,7-1.9,7.608-1.729,8.992,3.545,12.018,7.868,3.2,10.462,2.767,11.931S1197.941,692.36,1196.73,692.62Z" transform="translate(-242.812 -270.892)" fill="#c3dced" stroke="#007079" stroke-miterlimit="10" stroke-width="0.5"/>
      </g>

      <g class="eq4-man3">
        <path id="Контур_16327" data-name="Контур 16327" d="M1308.066,309.573c-.155-.218-.34-.419-.506-.621a3.7,3.7,0,0,1-.453-1,1.952,1.952,0,0,0-.594-.654,16.8,16.8,0,0,0-2.112-1.318,4.453,4.453,0,0,0-.832-.332c-.1-.027-.219.008-.32-.01-.077-.013-.077-.1-.133-.115-.21-.051-.415-.113-.622-.164a6.1,6.1,0,0,0-1.479-.035c-.574.007-1.074-.287-1.656-.13-.918.248-1.846.248-2.8.462-1.7.383-3.353.646-5.005,1.168-.512.162-.988.041-1.487.159a2.935,2.935,0,0,1-.868.15c-1.329-.011-2.972.381-3.576-1.181a13.557,13.557,0,0,1-.211-1.616c-.12-.488-.215-1.014-.36-1.49-.129-.422-.334-.864-.5-1.308a8.86,8.86,0,0,0-.6-1.564c-.265-.442-.4-.963-.679-1.407-.266-.42-.49-.831-.719-1.222a3.95,3.95,0,0,0-.6-.951,7.421,7.421,0,0,1-.78-1.027c-.168-.23-.356-.411-.545-.628a2.291,2.291,0,0,1-.32-.576,4.93,4.93,0,0,0-.864-1.312,4.273,4.273,0,0,0-2.139-1.526,5.253,5.253,0,0,0-1.566.023,2.37,2.37,0,0,1-.739.154,1.749,1.749,0,0,1-.79-.2,2.832,2.832,0,0,1-.526-1.036,13.923,13.923,0,0,1-.2-1.524c-.068-.278-.249-.573-.3-.868-.047-.264.063-.559.017-.824a13.968,13.968,0,0,0-.543-1.646c-.194-.626-.511-1.209-.687-1.842a3.859,3.859,0,0,0-.466-1.418c-.606-.831-.912-1.788-1.438-2.665-.494-.823-1.482-1.975-1.975-2.633s-2.469-1.481-3.786-2.3-3.621-4.279-3.621-4.279l7.9-12.508,17.446-7.406,22.547-2.633,19.915-5.6,6.583-2.139s-.823,3.621-1.646,4.444a2.141,2.141,0,0,0-.494,1.975s5.267,6.254,4.608,7.735-1.316,3.457-1.645,3.95.164,4.279.987,5.76,3.621,3.95,4.444,5.431,4.608,4.115,4.608,4.115a67.2,67.2,0,0,0,7.406-2.8,6.006,6.006,0,0,1,3.457-.493l3.785,9.71-1.152.988s27.814,19.091,30.777,30.283,11.356,15.471,11.685,43.779,1.152,47.4,0,51.185a66.113,66.113,0,0,0-1.81,8.394,97.126,97.126,0,0,0-1.481,9.71c0,2.14-.329,4.279.165,6.254s.493,9.381,1.152,12.014a22.748,22.748,0,0,1,.329,6.254l-1.481,7.9s-1.811,7.077-1.482,11.356,3.292,19.75,3.785,21.889,4.938,20.573,4.938,20.573l-106.978.329s2.468-17.775,2.633-18.762-.329-2.8.164-4.444a35.5,35.5,0,0,0,.987-6.583c0-1.152-1.975-4.773-2.962-5.267s-7.571-4.773-9.052-5.925-2.962-4.938-2.962-4.938.823-16.623.987-18.927a30.341,30.341,0,0,1,.823-5.76c.494-1.975,1.152-5.6,1.152-5.6s3.621-30.941,3.95-32.752,1.152-6.583,1.152-6.583,5.76-20.9,5.925-23.37a83.084,83.084,0,0,1,1.317-8.723c.329-1.481,0-14.977-.165-16.458s.658-5.267,1.152-7.406a42.226,42.226,0,0,0,1.152-5.6c0-.987.988-4.114,1.152-5.431s1.481-5.76,1.975-7.407a13.305,13.305,0,0,0,.173-3.861c-.029-1.747-.108-3.492-.2-5.237a6.51,6.51,0,0,0-.058-1.628A1.967,1.967,0,0,0,1308.066,309.573Z" transform="translate(-325.359 -40.969)" fill="#d5eaf4" stroke="#007079" stroke-miterlimit="10" stroke-width="0.5"/>

        <path id="Контур_16329" data-name="Контур 16329" d="M1316.654,204.1l-1.975-5.432s3.7-8.146,1.729-10.615-4.691-1.728-5.432-2.963-3.209-3.456-4.2-3.456-8.64-15.306-31.6-19.5-41.474,14.072-42.956,17.528a6.792,6.792,0,0,0,0,5.925s-4.2,9.381-3.7,14.072,1.728,15.8,2.715,17.775a13.48,13.48,0,0,1,1.235,3.7s-1.728,1.975-1.728,2.716v.74s-6.913,6.913-6.172,10.616,2.468,5.678,6.418,3.95,10.616-5.925,12.344-6.666,5.678-8.64,7.159-8.64,13.578-4.691,14.072-3.95,12.343,10.615,18.268,9.875,20.244-9.381,24.934-13.578S1316.654,204.1,1316.654,204.1Z" transform="translate(-305.575)" fill="#d5eaf4" stroke="#007079" stroke-miterlimit="10" stroke-width="0.5"/>


        <path id="Контур_16332" data-name="Контур 16332" d="M1271,490.208s-.988,9.628-1.728,12.837-.741,5.185-.988,6.172-2.716,7.16-2.716,9.875v7.9s-4.443,11.6-4.2,16.294-3.95,20.49-5.678,23.453-6.418,9.381-18.268,9.381-32.094-2.469-32.094-2.469-12.1-3.95-16.047-5.185a79.025,79.025,0,0,0-7.9-1.975l-12.1-2.222-8.394-1.481-1.975-7.9s-10.122-.74-12.344-.987-9.134,1.234-9.134,1.234a59.556,59.556,0,0,1-9.135.988c-3.95,0-6.665-.247-5.678.493s2.963,3.457,1.728,4.691-2.468,1.481-4.69.987-3.21-.493-4.691-1.728a47.387,47.387,0,0,1-3.7-3.456c-1.481-1.481-.741-3.456-2.222-3.209s-1.234-.741-1.975-.988a7.943,7.943,0,0,0-1.975-.247s1.234,4.444-1.975,4.2-4.691-2.715-5.184-5.678a16.271,16.271,0,0,1,.493-7.9l.741-1.975a20.261,20.261,0,0,1-5.431.494c-2.222-.247-5.185-1.975-4.2-4.444s7.653-6.419,9.875-7.9a45.309,45.309,0,0,1,9.134-4.691c2.963-.987,6.172.494,9.135-.74a14.206,14.206,0,0,1,7.653-.741c2.222.247,10.122,3.209,14.319,4.2s9.628,1.728,12.59,2.469,5.185,1.481,5.185,1.481a79.854,79.854,0,0,1,8.64.741c2.222.493,5.925.493,9.628,1.234s2.962,1.234,5.184,1.481,3.95-.494,5.678-.247a10.966,10.966,0,0,1,3.95,1.975l4.444,1.235,3.7-1.728a56.569,56.569,0,0,1,7.406.493,19.638,19.638,0,0,0,6.419.247c1.481-.247.494-.987,3.7-.247s3.209.247,4.938,0,.74,1.482,1.728-.247.247-2.715-.988-3.95-1.728-2.221-1.234-3.209-.247-2.962,1.234-3.7a1.571,1.571,0,0,0,.988-1.975s-.494-3.456-.741-4.444a8.626,8.626,0,0,1-.74-2.962c0-1.482-.494-3.7-.741-6.666s-.247-3.95,0-4.691.247-2.222.494-3.209a19.179,19.179,0,0,0,.247-3.209s.247-2.469.247-3.21-.741-1.728-.494-2.715.247-2.716.494-3.457.246-.493.74-1.975a6.842,6.842,0,0,0,0-3.209c0-.741-.987-2.469-1.234-3.209a8.548,8.548,0,0,1-.494-4.2c.247-2.222-.247-2.963.247-4.691s0-2.716.987-3.95" transform="translate(-231.649 -167.485)" fill="#d5eaf4" stroke="#007079" stroke-miterlimit="10" stroke-width="0.5"/>
      </g>
    </g>
    


    <g id="Сгруппировать_6093" data-name="Сгруппировать 6093" transform="translate(426.5 440)">


      <g class="eq4-two">
      <text transform="translate(468.5 5797.5)" fill="#73afb6" stroke="#007079" stroke-width="0.5" font-size="137" font-family="FinancierDisplay-Bold, Financier Display" font-weight="700">
        <tspan x="0" y="0">two</tspan>
      </text>
      </g>

      <g class="eq4-million">
      <text transform="translate(468.5 5797.5)" fill="#73afb6" stroke="#007079" stroke-width="0.5" font-size="137" font-family="FinancierDisplay-Bold, Financier Display" font-weight="700">
        <tspan x="0" y="100">million</tspan>
      </text>
      </g>

      <g class="eq4-text">
        <text id="new_green_jobs_by_2030" data-name="new green jobs by 2030" transform="translate(643.5 5929.5)" fill="#253746" font-size="20" font-family="Metric-Medium, Metric" font-weight="500">
          <tspan x="0" y="18">NEW GREEN JOBS BY 2030</tspan>
        </text>
      </g>

      <g class="eq4-line">
        <path d="M399.952,0H0" transform="translate(461.279 5924.5)" fill="none" stroke="#153240" stroke-width="0.5"/>
      </g>

    </g>
  </g>
</svg>
